%YAML 1.1
%TAG !u! tag:unity3d.com,2011:
--- !u!114 &11400000
MonoBehaviour:
  m_ObjectHideFlags: 0
  m_CorrespondingSourceObject: {fileID: 0}
  m_PrefabInternal: {fileID: 0}
  m_GameObject: {fileID: 0}
  m_Enabled: 1
  m_EditorHideFlags: 0
  m_Script: {fileID: 11500000, guid: 87930b37aa860bb4eb65d373285d48d5, type: 3}
  m_Name: NormalRarity
  m_EditorClassIdentifier: 
  Name: Normal
  Color: {r: 1, g: 1, b: 1, a: 0.627451}
  ChanceToDrop: 0.65
  WeaponAttributesToUpgrade: 0
  ArmorAttributesToUpgrade: 0
