%YAML 1.1
%TAG !u! tag:unity3d.com,2011:
--- !u!114 &11400000
MonoBehaviour:
  m_ObjectHideFlags: 0
  m_CorrespondingSourceObject: {fileID: 0}
  m_PrefabInternal: {fileID: 0}
  m_GameObject: {fileID: 0}
  m_Enabled: 1
  m_EditorHideFlags: 0
  m_Script: {fileID: 11500000, guid: e40dbe4ac15954243988cfe60cdb2fe6, type: 3}
  m_Name: BaseTacticalBoots
  m_EditorClassIdentifier: 
  baseMinLevelToDrop: 1
  baseName: Tactical Boots
  baseDesc: This is tactical boots
  itemType: {fileID: 11400000, guid: b87f83a8819c78e4c92a17267ee0cb40, type: 2}
  baseSprite: {fileID: 21300000, guid: 823457c5b13bf77499b755e59bc75362, type: 3}
  armorType: {fileID: 11400000, guid: 843e39e6377b4b140af76bf9259efa70, type: 2}
  baseDefense: 3
  baseHitReduction: 1
  baseShotReduction: 1
