%YAML 1.1
%TAG !u! tag:unity3d.com,2011:
--- !u!114 &11400000
MonoBehaviour:
  m_ObjectHideFlags: 0
  m_CorrespondingSourceObject: {fileID: 0}
  m_PrefabInternal: {fileID: 0}
  m_GameObject: {fileID: 0}
  m_Enabled: 1
  m_EditorHideFlags: 0
  m_Script: {fileID: 11500000, guid: 4373766dfaa63df47b1eaba783c55a3e, type: 3}
  m_Name: BaseKelTecKSG
  m_EditorClassIdentifier: 
  baseMinLevelToDrop: 1
  baseName: Kel-Tec KSG
  baseDesc: This is Kel-Tec KSG
  itemType: {fileID: 11400000, guid: 00a39ffdb37800c4c8fa4a5ac92e5388, type: 2}
  baseSprite: {fileID: 21300000, guid: 045ec80a358ae9b42abcb90ca714c696, type: 3}
  weaponType: {fileID: 11400000, guid: e128cd6400931fa43aa9b4d3c2d419db, type: 2}
  reloadSound: {fileID: 8300000, guid: 1abcad6e88c847046892bc559c40f93e, type: 3}
  baseMinDamage: 6
  baseMaxDamage: 8
  baseAttackRange: 3
  baseCritChance: 0.2
  baseCritMultiplier: 1.6
  baseMaxAmmo: 7
  baseApToReload: 3
  baseAttackModes:
  - {fileID: 11400000, guid: 4bf6d10119eeee94fa991e07c9ab2f46, type: 2}
